0.000000000000000000e+00,0.000000000000000000e+00,0.000000000000000000e+00,1.000000000000000056e-32
1.337792642140468214e-05,1.939021694816212005e+00,0.000000000000000000e+00,1.000000000000000056e-32
2.675585284280936429e-05,3.868914059079217704e+00,0.000000000000000000e+00,1.000000000000000056e-32
4.013377926421404643e-05,5.758280514437208453e+00,0.000000000000000000e+00,1.000000000000000056e-32
5.351170568561872858e-05,7.549830929468430263e+00,0.000000000000000000e+00,1.000000000000000056e-32
6.688963210702341072e-05,9.183769550070087107e+00,0.000000000000000000e+00,1.000000000000000056e-32
8.026755852842809287e-05,1.062646810351364657e+01,0.000000000000000000e+00,1.000000000000000056e-32
9.364548494983277501e-05,1.187673076217466495e+01,0.000000000000000000e+00,1.000000000000000056e-32
1.070234113712374572e-04,1.295337439509495603e+01,0.000000000000000000e+00,1.000000000000000056e-32
1.204013377926421393e-04,1.388191596552319673e+01,0.000000000000000000e+00,1.000000000000000056e-32
1.337792642140468214e-04,1.468724369883849690e+01,0.000000000000000000e+00,1.000000000000000056e-32
1.471571906354515171e-04,1.539090915760837319e+01,0.000000000000000000e+00,1.000000000000000056e-32
1.605351170568561857e-04,1.601066219430876458e+01,0.000000000000000000e+00,1.000000000000000056e-32
1.739130434782608814e-04,1.656082546220282836e+01,0.000000000000000000e+00,1.000000000000000056e-32
1.872909698996655500e-04,1.705288443047936653e+01,0.000000000000000000e+00,1.000000000000000056e-32
2.006688963210702457e-04,1.749605823044974073e+01,0.000000000000000000e+00,1.000000000000000056e-32
2.140468227424749143e-04,1.789778118271098251e+01,0.000000000000000000e+00,1.000000000000000056e-32
2.274247491638795829e-04,1.826408715001908334e+01,0.000000000000000000e+00,1.000000000000000056e-32
2.408026755852842786e-04,1.859990911522224977e+01,0.000000000000000000e+00,1.000000000000000056e-32
2.541806020066889201e-04,1.890931057043563612e+01,0.000000000000000000e+00,1.000000000000000056e-32
2.675585284280936429e-04,1.919566396882159154e+01,0.000000000000000000e+00,1.000000000000000056e-32
2.809364548494983115e-04,1.946178870804204308e+01,0.000000000000000000e+00,1.000000000000000056e-32
2.943143812709030343e-04,1.971005834233460519e+01,0.000000000000000000e+00,1.000000000000000056e-32
3.076923076923077029e-04,1.994248439373492587e+01,0.000000000000000000e+00,1.000000000000000056e-32
3.210702341137123715e-04,2.016078231042047975e+01,0.000000000000000000e+00,1.000000000000000056e-32
3.344481605351170401e-04,2.036642373708459175e+01,0.000000000000000000e+00,1.000000000000000056e-32
3.478260869565217629e-04,2.056067822809277246e+01,0.000000000000000000e+00,1.000000000000000056e-32
3.612040133779263773e-04,2.074464676541293784e+01,0.000000000000000000e+00,1.000000000000000056e-32
3.745819397993311001e-04,2.091928887229246925e+01,0.000000000000000000e+00,1.000000000000000056e-32
3.879598662207357686e-04,2.108544468858877963e+01,0.000000000000000000e+00,1.000000000000000056e-32
4.013377926421404914e-04,2.124385305598129747e+01,0.000000000000000000e+00,1.000000000000000056e-32
4.147157190635451058e-04,2.139516642267029667e+01,0.000000000000000000e+00,1.000000000000000056e-32
4.280936454849498286e-04,2.153996319690828187e+01,0.000000000000000000e+00,1.000000000000000056e-32
4.414715719063544972e-04,2.167875804171644560e+01,0.000000000000000000e+00,1.000000000000000056e-32
4.548494983277591658e-04,2.181201049838306716e+01,0.000000000000000000e+00,1.000000000000000056e-32
4.682274247491638344e-04,2.194013224573832588e+01,0.000000000000000000e+00,1.000000000000000056e-32
4.816053511705685572e-04,2.206349323979965149e+01,0.000000000000000000e+00,1.000000000000000056e-32
4.949832775919732258e-04,2.218242692978042641e+01,0.000000000000000000e+00,1.000000000000000056e-32
5.083612040133778402e-04,2.229723470837705435e+01,0.000000000000000000e+00,1.000000000000000056e-32
5.217391304347825630e-04,2.240818972424516886e+01,0.000000000000000000e+00,1.000000000000000056e-32
5.351170568561872858e-04,2.251554016080135057e+01,0.000000000000000000e+00,1.000000000000000056e-32
5.484949832775919002e-04,2.261951206654707747e+01,0.000000000000000000e+00,1.000000000000000056e-32
5.618729096989966230e-04,2.272031180694522945e+01,0.000000000000000000e+00,1.000000000000000056e-32
5.752508361204013458e-04,2.281812819567327111e+01,0.000000000000000000e+00,1.000000000000000056e-32
5.886287625418060686e-04,2.291313435320638803e+01,0.000000000000000000e+00,1.000000000000000056e-32
6.020066889632106830e-04,2.300548933266383500e+01,0.000000000000000000e+00,1.000000000000000056e-32
6.153846153846154058e-04,2.309533954630667552e+01,0.000000000000000000e+00,1.000000000000000056e-32
6.287625418060200201e-04,2.318282002071037340e+01,0.000000000000000000e+00,1.000000000000000056e-32
6.421404682274247430e-04,2.326805550422015401e+01,0.000000000000000000e+00,1.000000000000000056e-32
6.555183946488293573e-04,2.335116144664827331e+01,0.000000000000000000e+00,1.000000000000000056e-32
6.688963210702340801e-04,2.343224486814543894e+01,0.000000000000000000e+00,1.000000000000000056e-32
6.822742474916386945e-04,2.351140513165819002e+01,0.000000000000000000e+00,1.000000000000000056e-32
6.956521739130435257e-04,2.358873463127789449e+01,0.000000000000000000e+00,1.000000000000000056e-32
7.090301003344481401e-04,2.366431940702094394e+01,0.000000000000000000e+00,1.000000000000000056e-32
7.224080267558527545e-04,2.373823969509381726e+01,0.000000000000000000e+00,1.000000000000000056e-32
7.357859531772575857e-04,2.381057042144233549e+01,0.000000000000000000e+00,1.000000000000000056e-32
7.491638795986622001e-04,2.388138164532263019e+01,0.000000000000000000e+00,1.000000000000000056e-32
7.625418060200668145e-04,2.395073895872942416e+01,0.000000000000000000e+00,1.000000000000000056e-32
7.759197324414715373e-04,2.401870384674893799e+01,0.000000000000000000e+00,1.000000000000000056e-32
7.892976588628761517e-04,2.408533401324788059e+01,0.000000000000000000e+00,1.000000000000000056e-32
8.026755852842809829e-04,2.415068367574779984e+01,0.000000000000000000e+00,1.000000000000000056e-32
8.160535117056855973e-04,2.421480383285175009e+01,0.000000000000000000e+00,1.000000000000000056e-32
8.294314381270902117e-04,2.427774250717465421e+01,0.000000000000000000e+00,1.000000000000000056e-32
8.428093645484950429e-04,2.433954496637031895e+01,0.000000000000000000e+00,1.000000000000000056e-32
8.561872909698996573e-04,2.440025392453784292e+01,0.000000000000000000e+00,1.000000000000000056e-32
8.695652173913042716e-04,2.445990972602128366e+01,0.000000000000000000e+00,1.000000000000000056e-32
8.829431438127089945e-04,2.451855051338260694e+01,0.000000000000000000e+00,1.000000000000000056e-32
8.963210702341137173e-04,2.457621238112446349e+01,0.000000000000000000e+00,1.000000000000000056e-32
9.096989966555183316e-04,2.463292951656161733e+01,0.000000000000000000e+00,1.000000000000000056e-32
9.230769230769230544e-04,2.468873432908445054e+01,0.000000000000000000e+00,1.000000000000000056e-32
9.364548494983276688e-04,2.474365756892173707e+01,0.000000000000000000e+00,1.000000000000000056e-32
9.498327759197325000e-04,2.479772843639036850e+01,0.000000000000000000e+00,1.000000000000000056e-32
9.632107023411371144e-04,2.485097468251439423e+01,0.000000000000000000e+00,1.000000000000000056e-32
9.765886287625418372e-04,2.490342270180315509e+01,0.000000000000000000e+00,1.000000000000000056e-32
9.899665551839464516e-04,2.495509761789626779e+01,0.000000000000000000e+00,1.000000000000000056e-32
1.003344481605351066e-03,2.500602336271091630e+01,0.000000000000000000e+00,1.000000000000000056e-32
1.016722408026755680e-03,2.505622274966270879e+01,0.000000000000000000e+00,1.000000000000000056e-32
1.030100334448160512e-03,2.510571754147443357e+01,0.000000000000000000e+00,1.000000000000000056e-32
1.043478260869565126e-03,2.515452851303636805e+01,0.000000000000000000e+00,1.000000000000000056e-32
1.056856187290969740e-03,2.520267550973696302e+01,0.000000000000000000e+00,1.000000000000000056e-32
1.070234113712374572e-03,2.525017750164220587e+01,0.000000000000000000e+00,1.000000000000000056e-32
1.083612040133779186e-03,2.529705263386644631e+01,0.000000000000000000e+00,1.000000000000000056e-32
1.096989966555183800e-03,2.534331827344516697e+01,0.000000000000000000e+00,1.000000000000000056e-32
1.110367892976588632e-03,2.538899105299152836e+01,0.000000000000000000e+00,1.000000000000000056e-32
1.123745819397993246e-03,2.543408691139280364e+01,0.000000000000000000e+00,1.000000000000000056e-32
1.137123745819398077e-03,2.547862113177956189e+01,0.000000000000000000e+00,1.000000000000000056e-32
1.150501672240802692e-03,2.552260837697985352e+01,0.000000000000000000e+00,1.000000000000000056e-32
1.163879598662207306e-03,2.556606272265171853e+01,0.000000000000000000e+00,1.000000000000000056e-32
1.177257525083612137e-03,2.560899768827061607e+01,0.000000000000000000e+00,1.000000000000000056e-32
1.190635451505016752e-03,2.565142626613306476e+01,0.000000000000000000e+00,1.000000000000000056e-32
1.204013377926421366e-03,2.569336094852407371e+01,0.000000000000000000e+00,1.000000000000000056e-32
1.217391304347826197e-03,2.573481375318338138e+01,0.000000000000000000e+00,1.000000000000000056e-32
1.230769230769230812e-03,2.577579624719440332e+01,0.000000000000000000e+00,1.000000000000000056e-32
1.244147157190635426e-03,2.581631956940943695e+01,0.000000000000000000e+00,1.000000000000000056e-32
1.257525083612040040e-03,2.585639445151542049e+01,0.000000000000000000e+00,1.000000000000000056e-32
1.270903010033444655e-03,2.589603123783613015e+01,0.000000000000000000e+00,1.000000000000000056e-32
1.284280936454849486e-03,2.593523990395903311e+01,0.000000000000000000e+00,1.000000000000000056e-32
1.297658862876254100e-03,2.597403007426796506e+01,0.000000000000000000e+00,1.000000000000000056e-32
1.311036789297658715e-03,2.601241103845652702e+01,0.000000000000000000e+00,1.000000000000000056e-32
1.324414715719063546e-03,2.605039176709117399e+01,0.000000000000000000e+00,1.000000000000000056e-32
1.337792642140468160e-03,2.608798092628779486e+01,0.000000000000000000e+00,1.000000000000000056e-32
1.351170568561872775e-03,2.612518689156059182e+01,0.000000000000000000e+00,1.000000000000000056e-32
1.364548494983277389e-03,2.616201776089774711e+01,0.000000000000000000e+00,1.000000000000000056e-32
1.377926421404682437e-03,2.619848136711422626e+01,0.000000000000000000e+00,1.000000000000000056e-32
1.391304347826087051e-03,2.623458528952836843e+01,0.000000000000000000e+00,1.000000000000000056e-32
1.404682274247491666e-03,2.627033686500551468e+01,0.000000000000000000e+00,1.000000000000000056e-32
1.418060200668896280e-03,2.630574319840872732e+01,0.000000000000000000e+00,1.000000000000000056e-32
1.431438127090300895e-03,2.634081117249387916e+01,0.000000000000000000e+00,1.000000000000000056e-32
1.444816053511705509e-03,2.637554745728357375e+01,0.000000000000000000e+00,1.000000000000000056e-32
1.458193979933110557e-03,2.640995851895212354e+01,0.000000000000000000e+00,1.000000000000000056e-32
1.471571906354515171e-03,2.644405062825135388e+01,0.000000000000000000e+00,1.000000000000000056e-32
1.484949832775919786e-03,2.647782986850511833e+01,0.000000000000000000e+00,1.000000000000000056e-32
1.498327759197324400e-03,2.651130214319833556e+01,0.000000000000000000e+00,1.000000000000000056e-32
1.511705685618729015e-03,2.654447318318471716e+01,0.000000000000000000e+00,1.000000000000000056e-32
1.525083612040133629e-03,2.657734855353564996e+01,0.000000000000000000e+00,1.000000000000000056e-32
1.538461538461538460e-03,2.660993366005125438e+01,0.000000000000000000e+00,1.000000000000000056e-32
1.551839464882943075e-03,2.664223375545311612e+01,0.000000000000000000e+00,1.000000000000000056e-32
1.565217391304347689e-03,2.667425394527711546e+01,0.000000000000000000e+00,1.000000000000000056e-32
1.578595317725752303e-03,2.670599919348334339e+01,0.000000000000000000e+00,1.000000000000000056e-32
1.591973244147157135e-03,2.673747432779911648e+01,0.000000000000000000e+00,1.000000000000000056e-32
1.605351170568561966e-03,2.676868404481015062e+01,0.000000000000000000e+00,1.000000000000000056e-32
1.618729096989966580e-03,2.679963291481372778e+01,0.000000000000000000e+00,1.000000000000000056e-32
1.632107023411371195e-03,2.683032538644714293e+01,0.000000000000000000e+00,1.000000000000000056e-32
1.645484949832775809e-03,2.686076579110361706e+01,0.000000000000000000e+00,1.000000000000000056e-32
1.658862876254180423e-03,2.689095834714726152e+01,0.000000000000000000e+00,1.000000000000000056e-32
1.672240802675585038e-03,2.692090716393788696e+01,0.000000000000000000e+00,1.000000000000000056e-32
1.685618729096990086e-03,2.695061624567581759e+01,0.000000000000000000e+00,1.000000000000000056e-32
1.698996655518394700e-03,2.698008949507625331e+01,0.000000000000000000e+00,1.000000000000000056e-32
1.712374581939799315e-03,2.700933071688211129e+01,0.000000000000000000e+00,1.000000000000000056e-32
1.725752508361203929e-03,2.703834362122380952e+01,0.000000000000000000e+00,1.000000000000000056e-32
1.739130434782608543e-03,2.706713182683388297e+01,0.000000000000000000e+00,1.000000000000000056e-32
1.752508361204013375e-03,2.709569886412387163e+01,0.000000000000000000e+00,1.000000000000000056e-32
1.765886287625417989e-03,2.712404817813053626e+01,0.000000000000000000e+00,1.000000000000000056e-32
1.779264214046822820e-03,2.715218313133799910e+01,0.000000000000000000e+00,1.000000000000000056e-32
1.792642140468227435e-03,2.718010700638195232e+01,0.000000000000000000e+00,1.000000000000000056e-32
1.806020066889632049e-03,2.720782300864197367e+01,0.000000000000000000e+00,1.000000000000000056e-32
1.819397993311036663e-03,2.723533426872727148e+01,0.000000000000000000e+00,1.000000000000000056e-32
1.832775919732441494e-03,2.726264384486125536e+01,0.000000000000000000e+00,1.000000000000000056e-32
1.846153846153846109e-03,2.728975472516975387e+01,0.000000000000000000e+00,1.000000000000000056e-32
1.859531772575250723e-03,2.731666982987757208e+01,0.000000000000000000e+00,1.000000000000000056e-32
1.872909698996655338e-03,2.734339201341777681e+01,0.000000000000000000e+00,1.000000000000000056e-32
1.886287625418059952e-03,2.736992406645785181e+01,0.000000000000000000e+00,1.000000000000000056e-32
1.899665551839465000e-03,2.739626871784664530e+01,0.000000000000000000e+00,1.000000000000000056e-32
1.913043478260869614e-03,2.742242863648585427e+01,0.000000000000000000e+00,1.000000000000000056e-32
1.926421404682274229e-03,2.744840643312951300e+01,0.000000000000000000e+00,1.000000000000000056e-32
1.939799331103678843e-03,2.747420466211482903e+01,0.000000000000000000e+00,1.000000000000000056e-32
1.953177257525083674e-03,2.749982582302752121e+01,0.000000000000000000e+00,1.000000000000000056e-32
1.966555183946488289e-03,2.752527236230464069e+01,0.000000000000000000e+00,1.000000000000000056e-32
1.979933110367892903e-03,2.755054667477767794e+01,0.000000000000000000e+00,1.000000000000000056e-32
1.993311036789297518e-03,2.757565110515864149e+01,0.000000000000000000e+00,1.000000000000000056e-32
2.006688963210702132e-03,2.760058794947168792e+01,0.000000000000000000e+00,1.000000000000000056e-32
2.020066889632106746e-03,2.762535945643263346e+01,0.000000000000000000e+00,1.000000000000000056e-32
2.033444816053511361e-03,2.764996782877869208e+01,0.000000000000000000e+00,1.000000000000000056e-32
2.046822742474915975e-03,2.767441522455060010e+01,0.000000000000000000e+00,1.000000000000000056e-32
2.060200668896321023e-03,2.769870375832917020e+01,0.000000000000000000e+00,1.000000000000000056e-32
2.073578595317725638e-03,2.772283550242824290e+01,0.000000000000000000e+00,1.000000000000000056e-32
2.086956521739130252e-03,2.774681248804589018e+01,0.000000000000000000e+00,1.000000000000000056e-32
2.100334448160534866e-03,2.777063670637563675e+01,0.000000000000000000e+00,1.000000000000000056e-32
2.113712374581939481e-03,2.779431010967940097e+01,0.000000000000000000e+00,1.000000000000000056e-32
2.127090301003344529e-03,2.781783461232372190e+01,0.000000000000000000e+00,1.000000000000000056e-32
2.140468227424749143e-03,2.784121209178079681e+01,0.000000000000000000e+00,1.000000000000000056e-32
2.153846153846153758e-03,2.786444438959582115e+01,0.000000000000000000e+00,1.000000000000000056e-32
2.167224080267558372e-03,2.788753331232194910e+01,0.000000000000000000e+00,1.000000000000000056e-32
2.180602006688962986e-03,2.791048063242422472e+01,0.000000000000000000e+00,1.000000000000000056e-32
2.193979933110367601e-03,2.793328808915373784e+01,0.000000000000000000e+00,1.000000000000000056e-32
2.207357859531772649e-03,2.795595738939314501e+01,0.000000000000000000e+00,1.000000000000000056e-32
2.220735785953177263e-03,2.797849020847479551e+01,0.000000000000000000e+00,1.000000000000000056e-32
2.234113712374581878e-03,2.800088819097241100e+01,0.000000000000000000e+00,1.000000000000000056e-32
2.247491638795986492e-03,2.802315295146748042e+01,0.000000000000000000e+00,1.000000000000000056e-32
2.260869565217391106e-03,2.804528607529127981e+01,0.000000000000000000e+00,1.000000000000000056e-32
2.274247491638796154e-03,2.806728911924345482e+01,0.000000000000000000e+00,1.000000000000000056e-32
2.287625418060200769e-03,2.808916361228815362e+01,0.000000000000000000e+00,1.000000000000000056e-32
2.301003344481605383e-03,2.811091105622841724e+01,0.000000000000000000e+00,1.000000000000000056e-32
2.314381270903009997e-03,2.813253292635982916e+01,0.000000000000000000e+00,1.000000000000000056e-32
2.327759197324414612e-03,2.815403067210402810e+01,0.000000000000000000e+00,1.000000000000000056e-32
2.341137123745819226e-03,2.817540571762298640e+01,0.000000000000000000e+00,1.000000000000000056e-32
2.354515050167224274e-03,2.819665946241468291e+01,0.000000000000000000e+00,1.000000000000000056e-32
2.367892976588628889e-03,2.821779328189084879e+01,0.000000000000000000e+00,1.000000000000000056e-32
2.381270903010033503e-03,2.823880852793751473e+01,0.000000000000000000e+00,1.000000000000000056e-32
2.394648829431438117e-03,2.825970652945890293e+01,0.000000000000000000e+00,1.000000000000000056e-32
2.408026755852842732e-03,2.828048859290536399e+01,0.000000000000000000e+00,1.000000000000000056e-32
2.421404682274247780e-03,2.830115600278578469e+01,0.000000000000000000e+00,1.000000000000000056e-32
2.434782608695652394e-03,2.832171002216518474e+01,0.000000000000000000e+00,1.000000000000000056e-32
2.448160535117057009e-03,2.834215189314792482e+01,0.000000000000000000e+00,1.000000000000000056e-32
2.461538461538461623e-03,2.836248283734705566e+01,0.000000000000000000e+00,1.000000000000000056e-32
2.474916387959866237e-03,2.838270405634030880e+01,0.000000000000000000e+00,1.000000000000000056e-32
2.488294314381270852e-03,2.840281673211316615e+01,0.000000000000000000e+00,1.000000000000000056e-32
2.501672240802675466e-03,2.842282202748947029e+01,0.000000000000000000e+00,1.000000000000000056e-32
2.515050167224080081e-03,2.844272108655004772e+01,0.000000000000000000e+00,1.000000000000000056e-32
2.528428093645484695e-03,2.846251503503963676e+01,0.000000000000000000e+00,1.000000000000000056e-32
2.541806020066889309e-03,2.848220498076265272e+01,0.000000000000000000e+00,1.000000000000000056e-32
2.555183946488294357e-03,2.850179201396805695e+01,0.000000000000000000e+00,1.000000000000000056e-32
2.568561872909698972e-03,2.852127720772378794e+01,0.000000000000000000e+00,1.000000000000000056e-32
2.581939799331103586e-03,2.854066161828099979e+01,0.000000000000000000e+00,1.000000000000000056e-32
2.595317725752508201e-03,2.855994628542854130e+01,0.000000000000000000e+00,1.000000000000000056e-32
2.608695652173912815e-03,2.857913223283793869e+01,0.000000000000000000e+00,1.000000000000000056e-32
2.622073578595317429e-03,2.859822046839920517e+01,0.000000000000000000e+00,1.000000000000000056e-32
2.635451505016722044e-03,2.861721198454777237e+01,0.000000000000000000e+00,1.000000000000000056e-32
2.648829431438127092e-03,2.863610775858286317e+01,0.000000000000000000e+00,1.000000000000000056e-32
2.662207357859531272e-03,2.865490875297751927e+01,0.000000000000000000e+00,1.000000000000000056e-32
2.675585284280936321e-03,2.867361591568059254e+01,0.000000000000000000e+00,1.000000000000000056e-32
2.688963210702341369e-03,2.869223018041095230e+01,0.000000000000000000e+00,1.000000000000000056e-32
2.702341137123745549e-03,2.871075246694412542e+01,0.000000000000000000e+00,1.000000000000000056e-32
2.715719063545150597e-03,2.872918368139166034e+01,0.000000000000000000e+00,1.000000000000000056e-32
2.729096989966554778e-03,2.874752471647337870e+01,0.000000000000000000e+00,1.000000000000000056e-32
2.742474916387959826e-03,2.876577645178274878e+01,0.000000000000000000e+00,1.000000000000000056e-32
2.755852842809364874e-03,2.878393975404566874e+01,0.000000000000000000e+00,1.000000000000000056e-32
2.769230769230769055e-03,2.880201547737271994e+01,0.000000000000000000e+00,1.000000000000000056e-32
2.782608695652174103e-03,2.882000446350522083e+01,0.000000000000000000e+00,1.000000000000000056e-32
2.795986622073578284e-03,2.883790754205520912e+01,0.000000000000000000e+00,1.000000000000000056e-32
2.809364548494983332e-03,2.885572553073951241e+01,0.000000000000000000e+00,1.000000000000000056e-32
2.822742474916387512e-03,2.887345923560813787e+01,0.000000000000000000e+00,1.000000000000000056e-32
2.836120401337792560e-03,2.889110945126711982e+01,0.000000000000000000e+00,1.000000000000000056e-32
2.849498327759197609e-03,2.890867696109599194e+01,0.000000000000000000e+00,1.000000000000000056e-32
2.862876254180601789e-03,2.892616253746003352e+01,0.000000000000000000e+00,1.000000000000000056e-32
2.876254180602006837e-03,2.894356694191746371e+01,0.000000000000000000e+00,1.000000000000000056e-32
2.889632107023411018e-03,2.896089092542171528e+01,0.000000000000000000e+00,1.000000000000000056e-32
2.903010033444816066e-03,2.897813522851893708e+01,0.000000000000000000e+00,1.000000000000000056e-32
2.916387959866221114e-03,2.899530058154082823e+01,0.000000000000000000e+00,1.000000000000000056e-32
2.929765886287625295e-03,2.901238770479304208e+01,0.000000000000000000e+00,1.000000000000000056e-32
2.943143812709030343e-03,2.902939730873911017e+01,0.000000000000000000e+00,1.000000000000000056e-32
2.956521739130434524e-03,2.904633009418020606e+01,0.000000000000000000e+00,1.000000000000000056e-32
2.969899665551839572e-03,2.906318675243070970e+01,0.000000000000000000e+00,1.000000000000000056e-32
2.983277591973244186e-03,2.907996796548980356e+01,0.000000000000000000e+00,1.000000000000000056e-32
2.996655518394648800e-03,2.909667440620910028e+01,0.000000000000000000e+00,1.000000000000000056e-32
3.010033444816053415e-03,2.911330673845654715e+01,0.000000000000000000e+00,1.000000000000000056e-32
3.023411371237458029e-03,2.912986561727656820e+01,0.000000000000000000e+00,1.000000000000000056e-32
3.036789297658862644e-03,2.914635168904666429e+01,0.000000000000000000e+00,1.000000000000000056e-32
3.050167224080267258e-03,2.916276559163047466e+01,0.000000000000000000e+00,1.000000000000000056e-32
3.063545150501672306e-03,2.917910795452748118e+01,0.000000000000000000e+00,1.000000000000000056e-32
3.076923076923076920e-03,2.919537939901936596e+01,0.000000000000000000e+00,1.000000000000000056e-32
3.090301003344481535e-03,2.921158053831317147e+01,0.000000000000000000e+00,1.000000000000000056e-32
3.103678929765886149e-03,2.922771197768132367e+01,0.000000000000000000e+00,1.000000000000000056e-32
3.117056856187290764e-03,2.924377431459858911e+01,0.000000000000000000e+00,1.000000000000000056e-32
3.130434782608695378e-03,2.925976813887609751e+01,0.000000000000000000e+00,1.000000000000000056e-32
3.143812709030100426e-03,2.927569403279240134e+01,0.000000000000000000e+00,1.000000000000000056e-32
3.157190635451504607e-03,2.929155257122182121e+01,0.000000000000000000e+00,1.000000000000000056e-32
3.170568561872909655e-03,2.930734432175995252e+01,0.000000000000000000e+00,1.000000000000000056e-32
3.183946488294314269e-03,2.932306984484655743e+01,0.000000000000000000e+00,1.000000000000000056e-32
3.197324414715718884e-03,2.933872969388581708e+01,0.000000000000000000e+00,1.000000000000000056e-32
3.210702341137123932e-03,2.935432441536408987e+01,0.000000000000000000e+00,1.000000000000000056e-32
3.224080267558528112e-03,2.936985454896515790e+01,0.000000000000000000e+00,1.000000000000000056e-32
3.237458193979933160e-03,2.938532062768307895e+01,0.000000000000000000e+00,1.000000000000000056e-32
3.250836120401337341e-03,2.940072317793269718e+01,0.000000000000000000e+00,1.000000000000000056e-32
3.264214046822742389e-03,2.941606271965785879e+01,0.000000000000000000e+00,1.000000000000000056e-32
3.277591973244147437e-03,2.943133976643738947e+01,0.000000000000000000e+00,1.000000000000000056e-32
3.290969899665551618e-03,2.944655482558891180e+01,0.000000000000000000e+00,1.000000000000000056e-32
3.304347826086956666e-03,2.946170839827052390e+01,0.000000000000000000e+00,1.000000000000000056e-32
3.317725752508360847e-03,2.947680097958042467e+01,0.000000000000000000e+00,1.000000000000000056e-32
3.331103678929765895e-03,2.949183305865449967e+01,0.000000000000000000e+00,1.000000000000000056e-32
3.344481605351170075e-03,2.950680511876195311e+01,0.000000000000000000e+00,1.000000000000000056e-32
3.357859531772575123e-03,2.952171763739902133e+01,0.000000000000000000e+00,1.000000000000000056e-32
3.371237458193980172e-03,2.953657108638080686e+01,0.000000000000000000e+00,1.000000000000000056e-32
3.384615384615384352e-03,2.955136593193126870e+01,0.000000000000000000e+00,1.000000000000000056e-32
3.397993311036789400e-03,2.956610263477145750e+01,0.000000000000000000e+00,1.000000000000000056e-32
3.411371237458193581e-03,2.958078165020597794e+01,0.000000000000000000e+00,1.000000000000000056e-32
3.424749163879598629e-03,2.959540342820776715e+01,0.000000000000000000e+00,1.000000000000000056e-32
3.438127090301003677e-03,2.960996841350121400e+01,0.000000000000000000e+00,1.000000000000000056e-32
3.451505016722407858e-03,2.962447704564364415e+01,0.000000000000000000e+00,1.000000000000000056e-32
3.464882943143812906e-03,2.963892975910522409e+01,0.000000000000000000e+00,1.000000000000000056e-32
3.478260869565217087e-03,2.965332698334734829e+01,0.000000000000000000e+00,1.000000000000000056e-32
3.491638795986622135e-03,2.966766914289946300e+01,0.000000000000000000e+00,1.000000000000000056e-32
3.505016722408026749e-03,2.968195665743445488e+01,0.000000000000000000e+00,1.000000000000000056e-32
3.518394648829431363e-03,2.969618994184259009e+01,0.000000000000000000e+00,1.000000000000000056e-32
3.531772575250835978e-03,2.971036940630406065e+01,0.000000000000000000e+00,1.000000000000000056e-32
3.545150501672240592e-03,2.972449545636009205e+01,0.000000000000000000e+00,1.000000000000000056e-32
3.558528428093645640e-03,2.973856849298280025e+01,0.000000000000000000e+00,1.000000000000000056e-32
3.571906354515049821e-03,2.975258891264365957e+01,0.000000000000000000e+00,1.000000000000000056e-32
3.585284280936454869e-03,2.976655710738072713e+01,0.000000000000000000e+00,1.000000000000000056e-32
3.598662207357859483e-03,2.978047346486459190e+01,0.000000000000000000e+00,1.000000000000000056e-32
3.612040133779264098e-03,2.979433836846312289e+01,0.000000000000000000e+00,1.000000000000000056e-32
3.625418060200668712e-03,2.980815219730499166e+01,0.000000000000000000e+00,1.000000000000000056e-32
3.638795986622073327e-03,2.982191532634201536e+01,0.000000000000000000e+00,1.000000000000000056e-32
3.652173913043477941e-03,2.983562812641040551e+01,0.000000000000000000e+00,1.000000000000000056e-32
3.665551839464882989e-03,2.984929096429083017e+01,0.000000000000000000e+00,1.000000000000000056e-32
3.678929765886287603e-03,2.986290420276741742e+01,0.000000000000000000e+00,1.000000000000000056e-32
3.692307692307692218e-03,2.987646820068570719e+01,0.000000000000000000e+00,1.000000000000000056e-32
3.705685618729096832e-03,2.988998331300948053e+01,0.000000000000000000e+00,1.000000000000000056e-32
3.719063545150501447e-03,2.990344989087664374e+01,0.000000000000000000e+00,1.000000000000000056e-32
3.732441471571906495e-03,2.991686828165406098e+01,0.000000000000000000e+00,1.000000000000000056e-32
3.745819397993310675e-03,2.993023882899143473e+01,0.000000000000000000e+00,1.000000000000000056e-32
3.759197324414715723e-03,2.994356187287418436e+01,0.000000000000000000e+00,1.000000000000000056e-32
3.772575250836119904e-03,2.995683774967541524e+01,0.000000000000000000e+00,1.000000000000000056e-32
3.785953177257524952e-03,2.997006679220698544e+01,0.000000000000000000e+00,1.000000000000000056e-32
3.799331103678930000e-03,2.998324932976962032e+01,0.000000000000000000e+00,1.000000000000000056e-32
3.812709030100334181e-03,2.999638568820217444e+01,0.000000000000000000e+00,1.000000000000000056e-32
3.826086956521739229e-03,3.000947618993006216e+01,0.000000000000000000e+00,1.000000000000000056e-32
3.839464882943143410e-03,3.002252115401277166e+01,0.000000000000000000e+00,1.000000000000000056e-32
3.852842809364548458e-03,3.003552089619060794e+01,0.000000000000000000e+00,1.000000000000000056e-32
3.866220735785952638e-03,3.004847572893061169e+01,0.000000000000000000e+00,1.000000000000000056e-32
3.879598662207357686e-03,3.006138596147168585e+01,0.000000000000000000e+00,1.000000000000000056e-32
3.892976588628762735e-03,3.007425189986893344e+01,0.000000000000000000e+00,1.000000000000000056e-32
3.906354515050167349e-03,3.008707384703724586e+01,0.000000000000000000e+00,1.000000000000000056e-32
3.919732441471571530e-03,3.009985210279416634e+01,0.000000000000000000e+00,1.000000000000000056e-32
3.933110367892976578e-03,3.011258696390196832e+01,0.000000000000000000e+00,1.000000000000000056e-32
3.946488294314380758e-03,3.012527872410906582e+01,0.000000000000000000e+00,1.000000000000000056e-32
3.959866220735785806e-03,3.013792767419073471e+01,0.000000000000000000e+00,1.000000000000000056e-32
3.973244147157189987e-03,3.015053410198909489e+01,0.000000000000000000e+00,1.000000000000000056e-32
3.986622073578595035e-03,3.016309829245247798e+01,0.000000000000000000e+00,1.000000000000000056e-32
4.000000000000000083e-03,3.017562052767407721e+01,0.000000000000000000e+00,1.000000000000000056e-32
